{
  "hits": [
    {
      "access": "public",
      "analysisMethod": {
        "analysisType": "sequence_upload",
        "software": "spinnaker"
      },
      "center_name": "UCSC",
      "dataCategorization": {
        "dataType": "fastq.gz",
        "experimentalStrategy": "RNA-Seq"
      },
      "donors": [
        {
          "donorId": "9ee8d3f4-93ab-57bc-8a91-d8f77da2fc8b",
          "otherIdentifiers": {
            "RedwoodDonorUUID": [
              "9ee8d3f4-93ab-57bc-8a91-d8f77da2fc8b"
            ]
          },
          "primarySite": "prostate gland",
          "projectCode": "CAR",
          "sampleId": [
            "7140f9f2-d506-5146-8707-f1a05721e6cd"
          ],
          "specimenType": [
            "Normal - blood derived"
          ],
          "study": "CAR",
          "submittedDonorId": "A123472",
          "submittedSampleId": [
            "S123472a1"
          ],
          "submittedSpecimenId": [
            "A123472a"
          ]
        }
      ],
      "fileCopies": [
        {
          "fileFormat": "fastq.gz",
          "fileMd5sum": "",
          "fileName": "TEST_R1.fastq.gz",
          "fileSize": 231476,
          "lastModified": "2017-06-20T20:45:57",
          "repoBaseUrl": "carlos.ucsc-cgp-dev.org",
          "repoCode": "Redwood-AWS-Oregon",
          "repoCountry": "US",
          "repoDataBundleId": "5b04f580-2d6a-59b7-b966-b08c6b2a03ef",
          "repoDataPath": null,
          "repoDataSetIds": [],
          "repoMetadataPath": null,
          "repoName": "Redwood-AWS-Oregon",
          "repoOrg": "UCSC",
          "repoType": "Redwood"
        }
      ],
      "id": "fd23d912-23f9-5bc4-8faf-fcf2956ae8e0",
      "objectID": "fd23d912-23f9-5bc4-8faf-fcf2956ae8e0",
      "program": "TCELL",
      "referenceGenome": {
        "downloadUrl": null,
        "genomeBuild": null,
        "referenceName": null
      },
      "study": [
        "CAR"
      ]
    },
    {
      "access": "public",
      "analysisMethod": {
        "analysisType": "sequence_upload",
        "software": "spinnaker"
      },
      "center_name": "UCSC",
      "dataCategorization": {
        "dataType": "fastq.gz",
        "experimentalStrategy": "RNA-Seq"
      },
      "donors": [
        {
          "donorId": "9ee8d3f4-93ab-57bc-8a91-d8f77da2fc8b",
          "otherIdentifiers": {
            "RedwoodDonorUUID": [
              "9ee8d3f4-93ab-57bc-8a91-d8f77da2fc8b"
            ]
          },
          "primarySite": "prostate gland",
          "projectCode": "CAR",
          "sampleId": [
            "7140f9f2-d506-5146-8707-f1a05721e6cd"
          ],
          "specimenType": [
            "Normal - blood derived"
          ],
          "study": "CAR",
          "submittedDonorId": "A123472",
          "submittedSampleId": [
            "S123472a1"
          ],
          "submittedSpecimenId": [
            "A123472a"
          ]
        }
      ],
      "fileCopies": [
        {
          "fileFormat": "fastq.gz",
          "fileMd5sum": "",
          "fileName": "TEST_R2.fastq.gz",
          "fileSize": 230960,
          "lastModified": "2017-06-20T20:45:57",
          "repoBaseUrl": "carlos.ucsc-cgp-dev.org",
          "repoCode": "Redwood-AWS-Oregon",
          "repoCountry": "US",
          "repoDataBundleId": "5b04f580-2d6a-59b7-b966-b08c6b2a03ef",
          "repoDataPath": null,
          "repoDataSetIds": [],
          "repoMetadataPath": null,
          "repoName": "Redwood-AWS-Oregon",
          "repoOrg": "UCSC",
          "repoType": "Redwood"
        }
      ],
      "id": "30a26643-8c8a-5e74-98b7-8cbff34f6e74",
      "objectID": "30a26643-8c8a-5e74-98b7-8cbff34f6e74",
      "program": "TCELL",
      "referenceGenome": {
        "downloadUrl": null,
        "genomeBuild": null,
        "referenceName": null
      },
      "study": [
        "CAR"
      ]
    },
    {
      "access": "public",
      "analysisMethod": {
        "analysisType": "sequence_upload",
        "software": "spinnaker"
      },
      "center_name": "UCSC",
      "dataCategorization": {
        "dataType": "fastq.gz",
        "experimentalStrategy": "RNA-Seq"
      },
      "donors": [
        {
          "donorId": "992f3726-fdc4-5d90-af7c-f287543e53e6",
          "otherIdentifiers": {
            "RedwoodDonorUUID": [
              "992f3726-fdc4-5d90-af7c-f287543e53e6"
            ]
          },
          "primarySite": "prostate gland",
          "projectCode": "CGP",
          "sampleId": [
            "2dc8d583-c205-515b-8b79-fd7905e94c91"
          ],
          "specimenType": [
            "Normal - blood derived"
          ],
          "study": "CGP",
          "submittedDonorId": "S123472",
          "submittedSampleId": [
            "S123472a1"
          ],
          "submittedSpecimenId": [
            "S123472a"
          ]
        }
      ],
      "fileCopies": [
        {
          "fileFormat": "fastq.gz",
          "fileMd5sum": "",
          "fileName": "TEST_A_R1.fastq.gz",
          "fileSize": 231476,
          "lastModified": "2017-06-20T01:50:07",
          "repoBaseUrl": "carlos.ucsc-cgp-dev.org",
          "repoCode": "Redwood-AWS-Oregon",
          "repoCountry": "US",
          "repoDataBundleId": "ed19b7ce-8c60-529d-83eb-a922d0e2b865",
          "repoDataPath": null,
          "repoDataSetIds": [],
          "repoMetadataPath": null,
          "repoName": "Redwood-AWS-Oregon",
          "repoOrg": "UCSC",
          "repoType": "Redwood"
        }
      ],
      "id": "ea94fd9c-22dc-5aff-9ed9-e621ed77ac06",
      "objectID": "ea94fd9c-22dc-5aff-9ed9-e621ed77ac06",
      "program": "Sample",
      "referenceGenome": {
        "downloadUrl": null,
        "genomeBuild": null,
        "referenceName": null
      },
      "study": [
        "CGP"
      ]
    },
    {
      "access": "public",
      "analysisMethod": {
        "analysisType": "sequence_upload",
        "software": "spinnaker"
      },
      "center_name": "UCSC",
      "dataCategorization": {
        "dataType": "fastq.gz",
        "experimentalStrategy": "RNA-Seq"
      },
      "donors": [
        {
          "donorId": "992f3726-fdc4-5d90-af7c-f287543e53e6",
          "otherIdentifiers": {
            "RedwoodDonorUUID": [
              "992f3726-fdc4-5d90-af7c-f287543e53e6"
            ]
          },
          "primarySite": "prostate gland",
          "projectCode": "CGP",
          "sampleId": [
            "2dc8d583-c205-515b-8b79-fd7905e94c91"
          ],
          "specimenType": [
            "Normal - blood derived"
          ],
          "study": "CGP",
          "submittedDonorId": "S123472",
          "submittedSampleId": [
            "S123472a1"
          ],
          "submittedSpecimenId": [
            "S123472a"
          ]
        }
      ],
      "fileCopies": [
        {
          "fileFormat": "fastq.gz",
          "fileMd5sum": "",
          "fileName": "TEST_A_R2.fastq.gz",
          "fileSize": 230960,
          "lastModified": "2017-06-20T01:50:07",
          "repoBaseUrl": "carlos.ucsc-cgp-dev.org",
          "repoCode": "Redwood-AWS-Oregon",
          "repoCountry": "US",
          "repoDataBundleId": "ed19b7ce-8c60-529d-83eb-a922d0e2b865",
          "repoDataPath": null,
          "repoDataSetIds": [],
          "repoMetadataPath": null,
          "repoName": "Redwood-AWS-Oregon",
          "repoOrg": "UCSC",
          "repoType": "Redwood"
        }
      ],
      "id": "804cd135-e03a-5001-8163-01a33290e561",
      "objectID": "804cd135-e03a-5001-8163-01a33290e561",
      "program": "Sample",
      "referenceGenome": {
        "downloadUrl": null,
        "genomeBuild": null,
        "referenceName": null
      },
      "study": [
        "CGP"
      ]
    },
    {
      "access": "public",
      "analysisMethod": {
        "analysisType": "rna_seq_quantification",
        "software": "quay.io/ucsc_cgl/rnaseq-cgl-pipeline"
      },
      "center_name": "UCSC",
      "dataCategorization": {
        "dataType": "bam",
        "experimentalStrategy": "RNA-Seq"
      },
      "donors": [
        {
          "donorId": "992f3726-fdc4-5d90-af7c-f287543e53e6",
          "otherIdentifiers": {
            "RedwoodDonorUUID": [
              "992f3726-fdc4-5d90-af7c-f287543e53e6"
            ]
          },
          "primarySite": "prostate gland",
          "projectCode": "CGP",
          "sampleId": [
            "2dc8d583-c205-515b-8b79-fd7905e94c91"
          ],
          "specimenType": [
            "Normal - blood derived"
          ],
          "study": "CGP",
          "submittedDonorId": "S123472",
          "submittedSampleId": [
            "S123472a1"
          ],
          "submittedSpecimenId": [
            "S123472a"
          ]
        }
      ],
      "fileCopies": [
        {
          "fileFormat": "bam",
          "fileMd5sum": "sha1$f5830ab34c8d4b565f243bbb5a4e0c0f238fb283",
          "fileName": "S123472a1.sortedByCoord.md.bam",
          "fileSize": 571585,
          "lastModified": "2017-06-09T00:17:41.371841",
          "repoBaseUrl": "carlos.ucsc-cgp-dev.org",
          "repoCode": "Redwood-AWS-Oregon",
          "repoCountry": "US",
          "repoDataBundleId": "53b74ead-f8c2-4680-a9fd-4f64f50aa814",
          "repoDataPath": null,
          "repoDataSetIds": [],
          "repoMetadataPath": null,
          "repoName": "Redwood-AWS-Oregon",
          "repoOrg": "UCSC",
          "repoType": "Redwood"
        }
      ],
      "id": "a5d9a03f-e923-5230-ae2e-edc365d3176f",
      "objectID": "a5d9a03f-e923-5230-ae2e-edc365d3176f",
      "program": "Sample",
      "referenceGenome": {
        "downloadUrl": null,
        "genomeBuild": null,
        "referenceName": null
      },
      "study": [
        "CGP"
      ]
    }
  ],
  "pagination": {
    "count": 5,
    "from": 1,
    "order": "desc",
    "page": 1,
    "pages": 2,
    "size": 5,
    "sort": "center_name",
    "total": 7
  },
  "termFacets": {
    "analysisType": {
      "terms": [
        {
          "count": 6,
          "term": "sequence_upload"
        },
        {
          "count": 1,
          "term": "rna_seq_quantification"
        }
      ],
      "total": 7,
      "type": "terms"
    },
    "centerName": {
      "terms": [
        {
          "count": 7,
          "term": "UCSC"
        }
      ],
      "total": 7,
      "type": "terms"
    },
    "fileFormat": {
      "terms": [
        {
          "count": 6,
          "term": "fastq.gz"
        },
        {
          "count": 1,
          "term": "bam"
        },
        {
          "count": 1,
          "term": "gz"
        }
      ],
      "total": 8,
      "type": "terms"
    },
    "program": {
      "terms": [
        {
          "count": 5,
          "term": "Sample"
        },
        {
          "count": 2,
          "term": "TCELL"
        }
      ],
      "total": 7,
      "type": "terms"
    },
    "projectCode": {
      "terms": [
        {
          "count": 3,
          "term": "CGP"
        },
        {
          "count": 2,
          "term": "CAR"
        },
        {
          "count": 2,
          "term": "CGL"
        }
      ],
      "total": 7,
      "type": "terms"
    },
    "specimenType": {
      "terms": [
        {
          "count": 7,
          "term": "Normal - blood derived"
        }
      ],
      "total": 7,
      "type": "terms"
    },
    "workFlow": {
      "terms": [
        {
          "count": 6,
          "term": "spinnaker:1.0.2"
        },
        {
          "count": 1,
          "term": "quay.io/ucsc_cgl/rnaseq-cgl-pipeline:3.2.1-1"
        }
      ],
      "total": 7,
      "type": "terms"
    }
  }
}